…
### Arrange

-   The `arrange()` function order rows by values of a column(s) in
    ascending or descending order.

-   To re-order the `nids_df` first by `hhid` then `pid`, we type:

<!-- -->

    arrange(nids_df, w1_hhid, pid)

    ## # A tibble: 28,226 x 11
    ##    w1_hhid    pid w1_prov2011 w1_geo2011 w1_r_~1 w1_be~2 w1_be~3 w1_be~4 w1_be~5
    ##      <dbl>  <dbl>       <dbl>      <dbl>   <dbl>   <dbl>   <dbl>   <dbl>   <dbl>
    ##  1  101012 314585           2          1       1       2       1      25      51
    ##  2  101013 314544           2          1       1       1       1      25      45
    ##  3  101013 314550           2          1       3       2       1      25      32
    ##  4  101013 406295           2          1       4       2       1       2       9
    ##  5  101013 406296           2          1       4       1       1       2      13
    ##  6  101013 406297           2          1       4       2       1       3      11
    ##  7  101014 301454           2          1       4       1       1       3      15
    ##  8  101014 314575           2          1       4       1       1       4      25
    ##  9  101014 314580           2          1       3       2       1      25      60
    ## 10  101014 314581           2          1       4       2       1       8      22
    ## # ... with 28,216 more rows, 2 more variables: w1_hhincome <dbl>,
    ## #   w1_expenditure <dbl>, and abbreviated variable names 1: w1_r_relhead,
    ## #   2: w1_best_gen, 3: w1_best_race, 4: w1_best_edu, 5: w1_best_age_yrs
    ## # i Use `print(n = ...)` to see more rows, and `colnames()` to see all variable names
…
If you want the filter to pass at least one test, use the `|` operator:

    filter(nids_df, w1_best_age_yrs>100 | w1_r_relhead==1)

    ## # A tibble: 6,874 x 11
    ##    w1_hhid    pid w1_prov2011 w1_geo2011 w1_r_~1 w1_be~2 w1_be~3 w1_be~4 w1_be~5
    ##      <dbl>  <dbl>       <dbl>      <dbl>   <dbl>   <dbl>   <dbl>   <dbl>   <dbl>
    ##  1  101012 314585           2          1       1       2       1      25      51
    ##  2  101013 314544           2          1       1       1       1      25      45
    ##  3  101014 314582           2          1       1       1       1      25      62
    ##  4  101015 314570           2          1       1       2       1       5      47
    ##  5  101016 314110           2          1       1       2       1      25      50
    ##  6  101017 314531           2          1       1       1       1      25      38
    ##  7  101018 314578           2          1       1       1       1       7      37
    ##  8  101020 314542           2          1       1       2       1      25      79
    ##  9  101021 314567           2          1       1       2       1       6      68
    ## 10  101022 314558           2          1       1       1       1      25      44
    ## # ... with 6,864 more rows, 2 more variables: w1_hhincome <dbl>,
    ## #   w1_expenditure <dbl>, and abbreviated variable names 1: w1_r_relhead,
    ## #   2: w1_best_gen, 3: w1_best_race, 4: w1_best_edu, 5: w1_best_age_yrs
    ## # i Use `print(n = ...)` to see more rows, and `colnames()` to see all variable names
…
-   How many female household heads aged under 16 are in the `nids_df`
    data frame?

### Select

-   The `select` function extract columns by name.

-   We can select the `w1_hhid` and `pid` columns as follows:

<!-- -->

    select(nids_df,w1_hhid,pid)

    ## # A tibble: 28,226 x 2
    ##    w1_hhid    pid
    ##      <dbl>  <dbl>
    ##  1  101012 314585
    ##  2  101013 314544
    ##  3  101013 314550
    ##  4  101013 406295
    ##  5  101013 406296
    ##  6  101013 406297
    ##  7  101014 301454
    ##  8  101014 314575
    ##  9  101014 314580
    ## 10  101014 314581
    ## # ... with 28,216 more rows
    ## # i Use `print(n = ...)` to see more rows
…
-   Piping or chaining commands is thought to increase readability when
    there are many commands. The `%>%` operator is imported
    automatically from the [magrittr](https://magrittr.tidyverse.org/)
    package

-   For example:

<!-- -->

    nids_df %>%
      filter(w1_r_relhead==1 & w1_best_age_yrs>0) %>%  #filter
      arrange(w1_best_age_yrs) %>% #arrange
      select(w1_hhid, pid, w1_best_gen, w1_best_age_yrs)  #select

    ## # A tibble: 6,851 x 4
    ##    w1_hhid    pid w1_best_gen w1_best_age_yrs
    ##      <dbl>  <dbl>       <dbl>           <dbl>
    ##  1  102588 302378           1              15
    ##  2  105525 320852           2              15
    ##  3  106582 316334           2              15
    ##  4  107142 306517           1              15
    ##  5  170743 307022           1              15
    ##  6  103846 317538           1              16
    ##  7  107643 303935           1              16
    ##  8  110544 316922           1              16
    ##  9  107995 304126           2              17
    ## 10  108249 307028           2              17
    ## # ... with 6,841 more rows
    ## # i Use `print(n = ...)` to see more rows
…
    x %>% f %>% g %>% h

Compare the above with base notation (based on nesting commands):

    h(g(f(x)))

    nids_hh <- nids_df[nids_df$w1_r_relhead==1 & nids_df$w1_best_age_yrs>0, c('w1_hhid', 'pid','w1_best_gen','w1_best_age_yrs')]
    nids_hh[order(nids_hh$w1_best_age_yrs),]

    ## # A tibble: 7,059 x 4
    ##    w1_hhid    pid w1_best_gen w1_best_age_yrs
    ##      <dbl>  <dbl>       <dbl>           <dbl>
    ##  1  102588 302378           1              15
    ##  2  105525 320852           2              15
    ##  3  106582 316334           2              15
    ##  4  107142 306517           1              15
    ##  5  170743 307022           1              15
    ##  6  103846 317538           1              16
    ##  7  107643 303935           1              16
    ##  8  110544 316922           1              16
    ##  9  107995 304126           2              17
    ## 10  108249 307028           2              17
    ## # ... with 7,049 more rows
    ## # i Use `print(n = ...)` to see more rows
…
